CHARGE LOCATIONS AND CHARGES

Charge 1: charge of 1, at (0,0)
Charge 2: charge of -0.1, at (0,1)
Charge 3: charge of -0.1, at ( 0.95,  0.31)
Charge 4: charge of -0.1, at (-0.95,  0.31)
Charge 5: charge of -0.1, at ( 0.59, -0.81)
Charge 6: charge of -0.1, at (-0.59, -0.81)
